<?xml version="1.0" encoding="UTF-8"?>
<!DOCTYPE svg PUBLIC "-//W3C//DTD SVG 1.1//EN" "http://www.w3.org/Graphics/SVG/1.1/DTD/svg11.dtd">
<svg version="1.1" xmlns="http://www.w3.org/2000/svg" xmlns:xlink="http://www.w3.org/1999/xlink" x="0" y="0" width="30" height="30" viewBox="0, 0, 30, 30">
  <g id="Livello_1">
    <path d="M13.466,29.923 C5.64,28.785 0.396,22.849 0,15 C0,6.716 6.716,0 15,0 C23.284,0 30,6.716 30,15 C29.548,23.668 24.755,28.246 16.534,29.923 L15,30 L13.466,29.923 z M15,2 C7.82,2 2,7.82 2,15 C2,22.18 7.82,28 15,28 C22.353,27.881 27.638,22.161 28,15 C28,7.82 22.18,2 15,2 z" fill="#1E1E1E"/>
    <path d="M15,5 C20.523,5 25,9.477 25,15 C25,20.523 20.523,25 15,25 C9.477,25 5,20.523 5,15 C5,9.477 9.477,5 15,5 z M15,7 C10.582,7 7,10.582 7,15 C7,19.418 10.582,23 15,23 C19.418,23 23,19.418 23,15 C23,10.582 19.418,7 15,7 z" fill="#1E1E1E"/>
    <path d="M15,20 C12.239,20 10,17.761 10,15 C10,12.239 12.239,10 15,10 C17.761,10 20,12.239 20,15 C20,17.761 17.761,20 15,20 z" fill="#1E1E1E"/>
  </g>
</svg>
